[Code1]
# Documents -> Dokumente die mitgsendet werden müssen oben angegeben werden.
ContentDispositionName -> Name des Keys in demd as pdf mitgegeben wird.
DocumentName -> Name des Dokumentes(Später auch im PosPortal zu sehen.
## ParsingParameters -> wenn sie ihr dokument später in der API wieder finden möchten, müssen sie einen Parameter setzen. Diesen können sie im nacheinein bei dem call get signflows übergeben und bekommen die dokumente mit allen informationen zurück.

# SignatureRequests -> Welche Signaturen müssen getätigt werden.
Name -> Name des Requests
SequenceNumber -> wie vielte Signature
Device -> Typ des Gerätes auf der die Signature stattfinden wird
## SignatureGroups -> Wer soll das TextFeld(IdentifierPrefixes) unterzeichnen?(Name)

# AbortUrl -> wenn der Vorgang durch den Benutzer abgebrochen wird, auf welche URL soll er den Nutzer leiten?
{
    "Documents": [
        {
            "ContentDispositionName": "SepaLastschrift.pdf",
            "DocumentName": "SEPA Lastschrift-Mandat",
            "ParsingParameters": {
				"Name": "Test"
			}
      }
   ],
    "SignatureRequests": [
        {
            "Name": "123",
            "SequenceNumber": "1",
            "Device": "LargeTouch",

            "SignatureGroups": [
                {
                    "Name": "Kontozeichnungsberechtigter",
                    "IdentifierPrefixes": [
                        "KZB1"
                    ]
                }
            ]
      }
   ],
    "GeneralParameters": {},
    "AbortUrl": "http://www.pos.ag"
}
# AbortUrl -> wenn der Vorgang durch den Benutzer abgebrochen wird, auf welche URL soll er den Nutzer leiten?
# ReturnUrl -> wenn der Vorgang durch den Benutzer abgeschlossen wird, auf welche URL soll er den Nutzer leiten?
# ErrorUrl -> wenn der Vorgang durch einen Fehler abgebrochen wird, auf welche URL soll er den Nutzer leiten?
[Code2]
{
    "Documents": [
        {
            "ContentDispositionName": "SepaLastschrift.pdf",
            "DocumentName": "SEPA Lastschrift-Mandat",
            "ParsingParameters": {
				"Name": "Test"
			}
      }
   ],
    "SignatureRequests": [
        {
            "Name": "123",
            "SequenceNumber": "1",
            "Device": "LargeTouch",

            "SignatureGroups": [
                {
                    "Name": "Kontozeichnungsberechtigter",
                    "IdentifierPrefixes": [
                        "KZB1"
                    ]
                }
            ]
      }
   ],
    "GeneralParameters": {},
    "AbortUrl": "http://www.pos.ag",
	"ReturnUrl": "http://www.pos.ag",
	"ErrorUrl" : "http://www.pos.ag"
}
[Code3](PDF Example avaible -> Code3_example.pdf)
# !RemoteSigning needs a Plugin to work correctly!
{
    "Documents": [
        {
            "ContentDispositionName": "Code3_example.pdf",
            "DocumentName": "Kaufvertrag",
            "ParsingParameters": {
				"Name": "Test"
			}
      }
   ],
    "SignatureRequests": [
        {
            "Name": "Request1",
            "SequenceNumber": "1",
            "Device": "LargeTouch",

            "SignatureGroups": [
                {
                    "Name": "Kontozeichnungsberechtigter",
                    "IdentifierPrefixes": [
                        "SIGN1"
                    ]
                }
            ]
      }
   ],
    "GeneralParameters": {},
    "AbortUrl": "http://www.pos.ag",
	"ReturnUrl": "http://www.pos.ag",
	"ErrorUrl" : "http://www.pos.ag"
}
{
    "Documents": [
        {
            "ContentDispositionName": "Code3_example.pdf",
            "DocumentName": "Kaufvertrag",
            "ParsingParameters": {
				"Name": "Test"
			}
      }
   ],
    "SignatureRequests": [
        {
            "Name": "Request2",
            "SequenceNumber": "2",
            "Device": "SignaturPad",

            "SignatureGroups": [
                {
                    "Name": "Kontozeichnungsberechtigter",
                    "IdentifierPrefixes": [
                        "SIGN2"
                    ]
                }
            ]
      }
   ],
    "GeneralParameters": {},
    "AbortUrl": "http://www.pos.ag",
	"ReturnUrl": "http://www.pos.ag",
	"ErrorUrl" : "http://www.pos.ag"
}
{
    "Documents": [
        {
            "ContentDispositionName": "Code3_example.pdf",
            "DocumentName": "Kaufvertrag",
            "ParsingParameters": {
				"Name": "Test"
			}
      }
   ],
    "SignatureRequests": [
        {
            "Name": "Request3",
            "SequenceNumber": "3",
            "Device": "Remote",

            "SignatureGroups": [
                {
                    "Name": "Kontozeichnungsberechtigter",
                    "IdentifierPrefixes": [
                        "SIGN3"
                    ]
                }
            ],
			"RemoteSigning": {
				"RecipientPhoneNumber": "+430000000",
				"Text": "Link zur Unterzeichnung: [LINK]"
            }
		}
   ],
    "GeneralParameters": {},
    "AbortUrl": "http://www.pos.ag",
	"ReturnUrl": "http://www.pos.ag",
	"ErrorUrl" : "http://www.pos.ag"
}
[Code4]
{
    "Documents": [
        {
            "ContentDispositionName": "SepaLastschrift.pdf",
            "DocumentName": "SEPA Lastschrift-Mandat",
            "ParsingParameters": {
				"Name": "Test"
			}
		},
		{
            "ContentDispositionName": "SepaLastschrift2.pdf",
            "DocumentName": "SEPA Lastschrift-Mandat2",
            "ParsingParameters": {
				"Name": "Test"
			}
		}
   ],
    "SignatureRequests": [
        {
            "Name": "Kontozeichnungsberechtigter",
            "SequenceNumber": "1",
            "Device": "LargeTouch",

            "SignatureGroups": [
                {
                    "Name": "Kontozeichnungsberechtigter",
                    "IdentifierPrefixes": [
                        "SIGN1"
                    ]
                }
            ]
		}
   ],
    "GeneralParameters": {},
    "AbortUrl": "http://www.pos.ag",
	"ReturnUrl": "http://www.pos.ag",
	"ErrorUrl" : "http://www.pos.ag"
}
[Code5](PDF Example avaible -> Code3_example.pdf)
# !RemoteSigning needs a Plugin to work correctly!
{
    "Documents": [
        {
            "ContentDispositionName": "Code3_example.pdf",
            "DocumentName": "Kaufvertrag",
            "ParsingParameters": {
				"Name": "Test"
			}
      }
   ],
    "SignatureRequests": [
        {
            "Name": "Request1",
            "SequenceNumber": "1",
            "Device": "LargeTouch",

            "SignatureGroups": [
                {
                    "Name": "Inhaber",
                    "IdentifierPrefixes": [
                        "SIGN1"
                    ]
                }
            ]
      },
	  {
            "Name": "Request2",
            "SequenceNumber": "2",
            "Device": "SignaturePad",

            "SignatureGroups": [
                {
                    "Name": "Mitarbeiter",
                    "IdentifierPrefixes": [
                        "SIGN2"
                    ]
                }
            ]
      },
	  {
            "Name": "Request3",
            "SequenceNumber": "3",
            "Device": "Remote",

            "SignatureGroups": [
                {
                    "Name": "Ankäufer",
                    "IdentifierPrefixes": [
                        "SIGN3"
                    ]
                }
            ],
			"RemoteSigning": {
				"RecipientPhoneNumber": "+430000000",
				"Text": "Link zur Unterzeichnung: [LINK]"
            }
      }
	],
    "GeneralParameters": {},
    "AbortUrl": "http://www.pos.ag",
	"ReturnUrl": "http://www.pos.ag",
	"ErrorUrl" : "http://www.pos.ag"
}




Ident